Postcodes,Number_Of_Claims,Number_of_Business_Properties,Amount Paid (£ )
HD6 1,19,20,92180
HD6 2,1,1,5000
HD6 3,1,1,5000
HD6 4,5,5,12758
HX2 6,15,20,95384
HX2 8,1,2,10000
HX3 5,13,50,243402
HX3 6,1,1,891
HX3 7,2,2,7703
HX3 9,1,1,5000
HX4 0,1,9,45000
HX4 8,3,3,10500
HX5 0,6,7,35000
HX5 9,9,14,69932
HX6 1,4,4,15300
HX6 2,10,11,38558
HX6 3,51,52,227748
HX6 4,2,2,9500
HX7 5,51,78,363258
HX7 6,54,66,289082
HX7 7,10,10,46905
HX7 8,122,125,528462
OL14 5,21,21,94102
OL14 6,29,35,180500
OL14 7,42,42,193442
OL14 8,5,6,27098
CR15 9,45,42,95384
CR16 14,45,33,10000
CR14 12,22,18,243402
CR14 9,35,29,891
CR14 17,69,71,7703
CR14 22,1,3,5000
CR14 16,32,36,45000
CR14 10,4,9,10500
CR14 09,72,76,75
 CR14 03,5,8,4277
CR14 05,93,80,8562
CR14 19,7,10,42788
CR14 44,53,60,4527
CR14 56,7,3,9500
CR14 27,74,60,363258
AB12 36,74,63,289082
AB12 88,8,9,46905
AB12 89,22,10,7875
AB12 42,3,9,785
AB12 45,88,60,45453
AB12 99,7,6,75
AB12 78,2,12,75786
AB12 12,45,60,452
